Análise de Dados de Vendas de 2024
…
# Exibindo os outliers identificados (se houver)
list(quantidade_outliers, preco_outliers, preco_outliers_sku)

## [[1]]
## NULL
## 
## [[2]]
## NULL
## 
## [[3]]
## # A tibble: 625 × 4
##        cod_prod data_inicio data_fim   preco
##           <dbl> <chr>       <chr>      <dbl>
##  1 185584251496 2021-04-13  2021-08-06  386.
##  2 185584251496 2021-08-07  2021-11-30  388.
##  3 185584251496 2021-12-01  2022-03-26  390.
##  4 185584251496 2022-03-27  2022-07-20  404.
##  5 185584251496 2022-07-21  2022-11-13  412.
##  6 185584251496 2022-11-14  2023-03-09  428.
##  7 185584251496 2023-03-10  2023-07-03  439.
##  8 185584251496 2023-07-04  2023-10-27  430.
##  9 185584251496 2023-10-28  2024-02-20  448.
## 10 185584251496 2024-02-21  2024-06-13  449.
## # ℹ 615 more rows
…
